Reddit Project
…
# tf and tf-idf analysis
#tf
df.subreddit.dfm <- dfm(df.subreddit.tk)
tf <- rowSums(t(df.subreddit.dfm))
tf <- data.frame(term = names(tf), count = tf) %>%
  tibble() %>%
  arrange(desc(count))

#freq per documents
tidy(df.subreddit.dfm) %>%
  arrange(desc(count))
#> # A tibble: 774,783 x 3
#>    document        term   count
#>    <chr>           <chr>  <dbl>
#>  1 AskReddit       im      1077
#>  2 AskReddit       dont    1021
#>  3 AskReddit       people   928
#>  4 AskReddit       time     627
#>  5 AskReddit       youre    536
#>  6 pics            gem      512
#>  7 CFB             game     459
#>  8 AskReddit       post     431
#>  9 leagueoflegends happy    418
#> 10 funny           im       406
#> # i 774,773 more rows
…
num_topics <- 20  # Choose the number of topics you want to extract
lda_model <- LDA(dtm, k = num_topics, control = list(seed = 1234))

# Extract term-topic probabilities
topics <- tidy(lda_model, matrix = "beta")

# Top terms for each topic
top_terms <- topics %>%
  group_by(topic) %>%
  slice_max(beta, n = 15) %>%
  ungroup() %>%
  arrange(topic, -beta)

print(top_terms)
#> # A tibble: 300 x 3
#>    topic term           beta
#>    <int> <chr>         <dbl>
#>  1     1 read        0.0671 
#>  2     1 rules       0.0659 
#>  3     1 posting     0.0478 
#>  4     1 check       0.0324 
#>  5     1 wiki        0.0150 
#>  6     1 sidebar     0.0132 
#>  7     1 information 0.0128 
#>  8     1 faq         0.00864
#>  9     1 city        0.00739
#> 10     1 info        0.00712
#> # i 290 more rows

# Extract subreddit-topic distributions
subreddit_topics <- tidy(lda_model, matrix = "gamma")

print(subreddit_topics)
#> # A tibble: 86,300 x 3
#>    document      topic   gamma
#>    <chr>         <int>   <dbl>
#>  1 100yearsago       1 0.00137
#>  2 1200isplenty      1 0.00335
#>  3 1911              1 0.00887
#>  4 2000sMusic        1 0.00278
#>  5 2007scape         1 0.00207
#>  6 2019              1 0.0196 
#>  7 240sx             1 0.0122 
#>  8 24hoursofuhc      1 0.0122 
#>  9 24hoursupport     1 0.00256
#> 10 2X_INTJ           1 0.00887
#> # i 86,290 more rows
…
Click to show code

# Extract subreddit-topic probabilities
subreddit_topics <- tidy(lda_model, matrix = "gamma")

# Find the topic with the highest probability for each subreddit
dominant_topics <- subreddit_topics %>%
  group_by(document) %>%
  slice_max(gamma, n = 1) %>%
  ungroup() %>%
  rename(subreddit = document, dominant_topic = topic)

# View dominant topics
print(dominant_topics)
#> # A tibble: 4,326 x 3
#>    subreddit     dominant_topic gamma
#>    <chr>                  <int> <dbl>
#>  1 100yearsago               15 0.722
#>  2 1200isplenty              11 0.802
#>  3 1911                      15 0.831
#>  4 2000sMusic                12 0.820
#>  5 2007scape                 18 0.561
#>  6 2019                      12 0.627
#>  7 240sx                     12 0.768
#>  8 24hoursofuhc               3 0.768
#>  9 24hoursupport             11 0.615
#> 10 2X_INTJ                    7 0.831
#> # i 4,316 more rows
…
We filter our dataset to only keep the subreddits with 5 or more comments. And then compute the average score of a comment in each subreddit.

Click to show code

# Analyzing subreddit-wise tendency of high scores
df_subreddit_high_score <- df_high_score %>%
  group_by(subreddit) %>%
  summarise(avg_score = mean(score), median_score = median(score), comment_count = n()) %>%
  filter(comment_count >= 5) %>%
  arrange(desc(avg_score))

# Printing subreddit analysis
df_subreddit_high_score
#> # A tibble: 223 x 4
#>    subreddit     avg_score median_score comment_count
#>    <chr>             <dbl>        <dbl>         <int>
#>  1 IAmA              227.         120              47
#>  2 gifs              185.          24              25
#>  3 videos            124.          28.5           126
#>  4 funny             113.          26.5           150
#>  5 scifi             112.          68               9
#>  6 AskReddit          97.4         25             426
#>  7 food               93.5         28.5            34
#>  8 AdviceAnimals      92.6         18              47
#>  9 pics               89.2         27              93
#> 10 aww                80.3         28              36
#> # i 213 more rows
…
Click to show code

# Analyzing subreddit-wise tendency of low scores
df_low_score <- df_hugo %>%
  filter(score %in% (-302:-10))

df_subreddit_low_score <- df_low_score %>%
  group_by(subreddit) %>%
  summarise(avg_score = mean(score), median_score = median(score), comment_count = n()) %>%
  filter(comment_count >= 2) %>%
  arrange(avg_score)

# Printing subreddit analysis for low scores
df_subreddit_low_score
#> # A tibble: 76 x 4
#>    subreddit         avg_score median_score comment_count
#>    <chr>                 <dbl>        <dbl>         <int>
#>  1 worldnews             -61.4        -17               7
#>  2 cincinnati            -56          -56               2
#>  3 explainlikeimfive     -53.5        -53.5             2
#>  4 DestinyTheGame        -50.5        -50.5             2
#>  5 Chromecast            -41.5        -41.5             2
#>  6 childfree             -40          -40               2
#>  7 quityourbullshit      -39          -39               2
#>  8 technology            -37.5        -37.5             2
#>  9 todayilearned         -34.7        -23              15
#> 10 self                  -31.5        -31.5             2
#> # i 66 more rows
…
